<?xml version="1.0" encoding="utf-8"?>
<!-- Generator: Adobe Illustrator 16.0.3, SVG Export Plug-In . SVG Version: 6.00 Build 0)  -->
<!DOCTYPE svg PUBLIC "-//W3C//DTD SVG 1.1 Tiny//EN" "http://www.w3.org/Graphics/SVG/1.1/DTD/svg11-tiny.dtd">
<svg version="1.1" baseProfile="tiny" id="Ebene_1" xmlns="http://www.w3.org/2000/svg" xmlns:xlink="http://www.w3.org/1999/xlink"
	 x="0px" y="0px" width="143.8px" height="40.9px" viewBox="0 0 143.8 40.9" xml:space="preserve">
<g>
	<g>
		<g>
			<path d="M52,17.7c-0.9-1.2-1.4-2.8-1.4-4.8c0-1.3,0.2-2.5,0.7-3.5c0.5-1,1.2-1.8,2.1-2.3c0.9-0.5,1.9-0.8,3.1-0.8
				c2,0,3.4,0.6,4.4,1.7c0.9,1.1,1.4,2.7,1.4,4.7c0,1.3-0.2,2.5-0.7,3.6s-1.2,1.8-2.1,2.4c-0.9,0.6-2,0.9-3.2,0.9
				C54.3,19.5,52.9,18.9,52,17.7z M54.5,8.8c-0.5,0.9-0.7,2.3-0.7,4.1c0,1.8,0.2,3.2,0.7,4.1c0.5,0.9,1.1,1.3,1.9,1.3
				c0.8,0,1.5-0.5,1.9-1.5c0.5-1,0.7-2.4,0.7-4.2c0-1.8-0.2-3.2-0.7-4s-1.1-1.2-1.9-1.2C55.6,7.4,54.9,7.9,54.5,8.8z"/>
			<path d="M71.7,14.6h-7.1v-1.8h7.1V14.6z"/>
			<path d="M78.4,7.7l-2.2,0.1l-0.7,3.9h-1.6l0.3-5.2h11.4l0.2,5.2h-1.5l-0.8-3.9l-2.1-0.1v10.2l2.4,0.2v1.1h-7.6v-1.1l2.2-0.2V7.7z
				"/>
			<path d="M88,9.2C88.6,8,89.2,7,89.9,6.3c0.7-0.7,1.3-1.2,1.8-1.5l1,0.8c-0.4,0.2-0.8,0.7-1.3,1.3c-0.5,0.7-0.9,1.6-1.3,2.7
				c-0.4,1.2-0.6,2.5-0.6,4c0,1.5,0.2,2.8,0.5,4s0.8,2.1,1.3,2.8s0.9,1.2,1.3,1.4l-1,0.7c-1-0.6-2.1-1.6-3.1-3
				c-1-1.4-1.5-3.4-1.5-6.1C87.1,11.9,87.4,10.4,88,9.2z"/>
			<path d="M95.3,6.8L94,6.6V5.5l3.5-0.4h0.1l0.5,0.4l0,3.8l-0.1,1.5c0.4-0.3,0.8-0.6,1.4-0.9c0.6-0.3,1.2-0.4,1.9-0.4
				c0.7,0,1.3,0.1,1.7,0.4c0.4,0.3,0.7,0.7,0.8,1.2s0.2,1.3,0.2,2.2V18l1.1,0.2v1.1h-4.8v-1.1l0.9-0.2v-4.7c0-0.8-0.1-1.4-0.3-1.7
				c-0.2-0.3-0.5-0.5-1.1-0.5c-0.3,0-0.6,0.1-1,0.2c-0.3,0.1-0.6,0.3-0.8,0.5V18l1,0.2v1.1h-4.7v-1.1l0.9-0.2V6.8z"/>
			<path d="M110.2,18.2c-0.6,1.2-1.2,2.2-2,2.9c-0.7,0.7-1.3,1.2-1.8,1.5l-1-0.8c0.4-0.2,0.8-0.7,1.3-1.3c0.5-0.7,0.9-1.6,1.3-2.7
				s0.6-2.5,0.6-4c0-1.5-0.2-2.8-0.5-4c-0.4-1.1-0.8-2.1-1.3-2.8c-0.5-0.7-0.9-1.2-1.3-1.4l1-0.7c1,0.6,2.1,1.6,3.1,3
				c1,1.4,1.6,3.4,1.6,6.1C111.1,15.5,110.8,16.9,110.2,18.2z"/>
			<path d="M113.1,11.7c0.4-0.8,1-1.3,1.8-1.7s1.6-0.6,2.4-0.6c1.5,0,2.6,0.4,3.4,1.3c0.8,0.9,1.2,2.1,1.2,3.6
				c0,1.1-0.2,2.1-0.7,2.9c-0.4,0.8-1,1.3-1.8,1.7s-1.6,0.6-2.5,0.6c-1.4,0-2.6-0.4-3.4-1.3c-0.8-0.9-1.2-2.1-1.2-3.6
				C112.4,13.4,112.7,12.5,113.1,11.7z M114.1,7.7c-0.2-0.3-0.3-0.6-0.3-1c0-0.5,0.1-0.9,0.4-1.2c0.2-0.3,0.6-0.4,1.1-0.4
				c0.4,0,0.8,0.1,1,0.4s0.3,0.6,0.3,1c0,1.1-0.5,1.6-1.5,1.6C114.6,8.1,114.3,8,114.1,7.7z M118.5,17.4c0.3-0.6,0.4-1.5,0.4-2.8
				c0-1.3-0.1-2.3-0.4-3c-0.3-0.6-0.7-1-1.3-1c-1.1,0-1.7,1.2-1.7,3.7c0,1.3,0.1,2.3,0.4,3c0.3,0.6,0.7,1,1.3,1
				C117.8,18.2,118.2,17.9,118.5,17.4z M118.4,7.7c-0.2-0.3-0.3-0.6-0.3-1c0-0.5,0.1-0.9,0.4-1.2c0.2-0.3,0.6-0.4,1.1-0.4
				c0.5,0,0.8,0.1,1,0.4s0.3,0.6,0.3,1c0,1.1-0.5,1.6-1.5,1.6C118.9,8.1,118.6,8,118.4,7.7z"/>
			<path d="M124.5,11.5l-1-0.3V9.8l3.1-0.4h0.1l0.4,0.4v0.6l0,0.4c0.4-0.4,0.9-0.7,1.5-1s1.3-0.4,2-0.4c0.7,0,1.2,0.1,1.6,0.4
				c0.4,0.2,0.7,0.6,0.9,1.2c0.2,0.5,0.3,1.3,0.3,2.2V18l1,0.1v1.2h-4.7v-1.1l0.8-0.2v-4.7c0-0.6,0-1-0.1-1.3
				c-0.1-0.3-0.2-0.5-0.4-0.7c-0.2-0.1-0.4-0.2-0.8-0.2c-0.5,0-1.1,0.2-1.8,0.7V18l1,0.2v1.1h-4.8v-1.1l1-0.2V11.5z"/>
			<path d="M136.4,18.1c-0.8-0.9-1.1-2.1-1.1-3.7c0-1,0.2-2,0.6-2.7s0.9-1.3,1.7-1.7c0.7-0.4,1.5-0.6,2.5-0.6c1.2,0,2.1,0.3,2.8,0.9
				c0.6,0.6,1,1.5,1,2.6c0,0.7-0.1,1.3-0.2,1.8h-5.4c0.1,1,0.3,1.7,0.7,2.2c0.4,0.5,1,0.8,1.8,0.8c0.4,0,0.9-0.1,1.3-0.2
				s0.8-0.3,1.1-0.5l0.5,1.1c-0.3,0.3-0.8,0.7-1.5,1s-1.5,0.5-2.2,0.5C138.3,19.5,137.1,19,136.4,18.1z M141,13.6l0-0.7
				c0-0.7-0.1-1.3-0.3-1.7c-0.2-0.4-0.5-0.6-1-0.6c-0.5,0-0.9,0.2-1.1,0.6c-0.3,0.4-0.4,1.2-0.4,2.3H141z"/>
		</g>
		<g>
			<path fill="#7F7F7F" d="M51.4,33.2c0.5,0.3,1.2,0.5,1.9,0.5c1.1,0,1.7-0.6,1.7-1.4c0-0.8-0.4-1.2-1.6-1.6
				c-1.3-0.5-2.2-1.2-2.2-2.3c0-1.3,1.1-2.2,2.7-2.2c0.8,0,1.5,0.2,1.8,0.4l-0.3,0.9C55.3,27.2,54.7,27,54,27
				c-1.1,0-1.6,0.7-1.6,1.2c0,0.8,0.5,1.1,1.6,1.6c1.4,0.5,2.1,1.2,2.1,2.4c0,1.3-0.9,2.4-2.9,2.4c-0.8,0-1.7-0.2-2.1-0.5L51.4,33.2
				z"/>
			<path fill="#7F7F7F" d="M63,31.5c0,2.2-1.5,3.1-2.9,3.1c-1.6,0-2.8-1.2-2.8-3c0-2,1.3-3.1,2.9-3.1C61.8,28.4,63,29.7,63,31.5z
				 M58.3,31.5c0,1.3,0.7,2.3,1.8,2.3c1,0,1.8-1,1.8-2.3c0-1-0.5-2.3-1.8-2.3C58.8,29.2,58.3,30.4,58.3,31.5z"/>
			<path fill="#7F7F7F" d="M69.3,32.9c0,0.6,0,1.1,0,1.6h-1l-0.1-1h0c-0.3,0.5-0.9,1.1-2,1.1c-0.9,0-2-0.5-2-2.6v-3.5h1.1v3.3
				c0,1.1,0.3,1.9,1.3,1.9c0.7,0,1.2-0.5,1.4-1c0.1-0.2,0.1-0.4,0.1-0.6v-3.6h1.1V32.9z"/>
			<path fill="#7F7F7F" d="M71.5,28.6l1.2,3.3c0.2,0.5,0.4,1,0.5,1.5h0c0.1-0.5,0.3-1,0.5-1.5l1.1-3.3H76l-2.3,5.9h-1l-2.3-5.9H71.5
				z"/>
			<path fill="#7F7F7F" d="M77.5,31.7c0,1.5,1,2.1,2,2.1c0.8,0,1.2-0.1,1.6-0.3l0.2,0.8c-0.4,0.2-1,0.4-2,0.4c-1.8,0-2.9-1.2-2.9-3
				c0-1.8,1.1-3.2,2.8-3.2c1.9,0,2.4,1.7,2.4,2.8c0,0.2,0,0.4,0,0.5H77.5z M80.6,30.9c0-0.7-0.3-1.7-1.5-1.7c-1.1,0-1.6,1-1.7,1.7
				H80.6z"/>
			<path fill="#7F7F7F" d="M83,30.4c0-0.7,0-1.3,0-1.8h0.9l0,1.2h0c0.3-0.8,0.9-1.3,1.6-1.3c0.1,0,0.2,0,0.3,0v1c-0.1,0-0.2,0-0.4,0
				c-0.8,0-1.3,0.6-1.4,1.4c0,0.1,0,0.3,0,0.5v3.2H83V30.4z"/>
			<path fill="#7F7F7F" d="M90.2,34.5l-0.1-0.7h0c-0.3,0.5-1,0.9-1.8,0.9c-1.2,0-1.8-0.8-1.8-1.7c0-1.4,1.3-2.2,3.6-2.2v-0.1
				c0-0.5-0.1-1.4-1.3-1.4c-0.6,0-1.1,0.2-1.5,0.4L86.9,29c0.5-0.3,1.2-0.5,1.9-0.5c1.8,0,2.3,1.2,2.3,2.4v2.2c0,0.5,0,1,0.1,1.4
				H90.2z M87.2,26.9c0-0.3,0.3-0.6,0.6-0.6c0.3,0,0.6,0.3,0.6,0.6c0,0.3-0.2,0.6-0.6,0.6C87.5,27.5,87.2,27.2,87.2,26.9z M90,31.5
				c-1.2,0-2.5,0.2-2.5,1.3c0,0.7,0.5,1,1,1c0.8,0,1.3-0.5,1.4-1c0-0.1,0.1-0.2,0.1-0.3V31.5z M89.5,26.9c0-0.3,0.3-0.6,0.6-0.6
				c0.3,0,0.6,0.3,0.6,0.6c0,0.3-0.2,0.6-0.6,0.6C89.7,27.5,89.5,27.2,89.5,26.9z"/>
			<path fill="#7F7F7F" d="M92.8,30.2c0-0.6,0-1.1,0-1.6h1l0.1,1h0c0.3-0.6,1-1.1,2-1.1c0.8,0,2.1,0.5,2.1,2.5v3.5h-1.1v-3.4
				c0-1-0.4-1.7-1.4-1.7c-0.7,0-1.3,0.5-1.4,1.1c0,0.1-0.1,0.3-0.1,0.5v3.6h-1.1V30.2z"/>
			<path fill="#7F7F7F" d="M99.3,33.8c0-0.5,0.3-0.8,0.7-0.8c0.4,0,0.7,0.3,0.7,0.8c0,0.4-0.3,0.8-0.7,0.8
				C99.6,34.6,99.3,34.3,99.3,33.8z"/>
			<path fill="#7F7F7F" d="M104.8,26.2h1.1v4h0c0.2-0.3,0.4-0.6,0.6-0.9l2.5-3.1h1.3l-3,3.5l3.2,4.7h-1.3l-2.7-4l-0.8,0.9v3.1h-1.1
				V26.2z"/>
			<path fill="#7F7F7F" d="M111.5,30.4c0-0.7,0-1.3,0-1.8h0.9l0,1.2h0c0.3-0.8,0.9-1.3,1.6-1.3c0.1,0,0.2,0,0.3,0v1
				c-0.1,0-0.2,0-0.4,0c-0.8,0-1.3,0.6-1.4,1.4c0,0.1,0,0.3,0,0.5v3.2h-1.1V30.4z"/>
			<path fill="#7F7F7F" d="M116.7,26.9c0,0.4-0.3,0.7-0.7,0.7c-0.4,0-0.6-0.3-0.6-0.7c0-0.4,0.3-0.7,0.7-0.7
				C116.5,26.2,116.7,26.5,116.7,26.9z M115.5,34.5v-5.9h1.1v5.9H115.5z"/>
			<path fill="#7F7F7F" d="M119.7,26.9v1.7h1.5v0.8h-1.5v3.2c0,0.7,0.2,1.1,0.8,1.1c0.3,0,0.5,0,0.6-0.1l0,0.8
				c-0.2,0.1-0.5,0.1-1,0.1c-0.5,0-0.9-0.2-1.2-0.5c-0.3-0.3-0.4-0.8-0.4-1.5v-3.2h-0.9v-0.8h0.9v-1.4L119.7,26.9z"/>
			<path fill="#7F7F7F" d="M123.6,26.9c0,0.4-0.3,0.7-0.7,0.7c-0.4,0-0.6-0.3-0.6-0.7c0-0.4,0.3-0.7,0.7-0.7
				C123.4,26.2,123.6,26.5,123.6,26.9z M122.4,34.5v-5.9h1.1v5.9H122.4z"/>
			<path fill="#7F7F7F" d="M125.2,33.4c0.3,0.2,0.9,0.4,1.4,0.4c0.8,0,1.1-0.4,1.1-0.9c0-0.5-0.3-0.8-1.1-1.1
				c-1.1-0.4-1.6-1-1.6-1.7c0-1,0.8-1.7,2-1.7c0.6,0,1.1,0.2,1.5,0.4l-0.3,0.8c-0.2-0.1-0.7-0.3-1.2-0.3c-0.6,0-1,0.4-1,0.8
				c0,0.5,0.4,0.7,1.1,1c1,0.4,1.6,0.9,1.6,1.8c0,1-0.8,1.8-2.2,1.8c-0.6,0-1.2-0.2-1.7-0.4L125.2,33.4z"/>
			<path fill="#7F7F7F" d="M134.4,34.3c-0.3,0.1-0.9,0.3-1.7,0.3c-1.8,0-2.9-1.2-2.9-3c0-1.8,1.2-3.1,3.2-3.1c0.6,0,1.2,0.2,1.5,0.3
				l-0.2,0.8c-0.3-0.1-0.7-0.3-1.2-0.3c-1.4,0-2.1,1-2.1,2.2c0,1.4,0.9,2.2,2.1,2.2c0.6,0,1-0.2,1.3-0.3L134.4,34.3z"/>
			<path fill="#7F7F7F" d="M135.6,25.8h1.1v3.7h0c0.2-0.3,0.4-0.6,0.8-0.8c0.3-0.2,0.7-0.3,1.1-0.3c0.8,0,2.1,0.5,2.1,2.5v3.5h-1.1
				v-3.4c0-1-0.4-1.8-1.4-1.8c-0.7,0-1.2,0.5-1.4,1.1c-0.1,0.1-0.1,0.3-0.1,0.5v3.6h-1.1V25.8z"/>
			<path fill="#7F7F7F" d="M142.2,33.8c0-0.5,0.3-0.8,0.7-0.8c0.4,0,0.7,0.3,0.7,0.8c0,0.4-0.3,0.8-0.7,0.8
				C142.4,34.6,142.2,34.3,142.2,33.8z"/>
		</g>
	</g>
	<g>
		<g>
			<g>
				<path fill="#60A96E" d="M17.9,26.7c-0.1,0-0.2,0-0.4,0l-6-1.5c0.1,0.6,0.3,1.2,0.5,1.8c1,2.4,2.9,4,5.7,4.7
					c2.8,0.7,5.2,0.1,7.3-1.7c2.1-1.8,3.7-4.8,4.7-9c1.1-4.2,1.1-7.4,0.1-9.7c-1-2.3-2.9-3.7-5.8-4.5c-2.8-0.7-5.2-0.2-7.3,1.4
					c-0.7,0.5-1.3,1.2-1.8,2l6.3,1.6c0.8,0.2,1.2,1,1,1.7c-0.2,0.6-0.7,1.1-1.4,1.1c-0.1,0-0.2,0-0.4,0l-7.1-1.8
					c-0.4,1-0.8,2-1.1,3.2l7.4,1.9c0.8,0.2,1.2,1,1,1.7c-0.2,0.6-0.7,1.1-1.4,1.1c-0.1,0-0.2,0-0.4,0l-7.3-1.9
					c-0.2,1.2-0.4,2.3-0.4,3.4l6.9,1.8c0.8,0.2,1.2,1,1,1.7C19.1,26.3,18.5,26.7,17.9,26.7z"/>
			</g>
			<g>
				<path fill="#60A96E" d="M29.8,0H11.2C5,0,0,5,0,11.2v18.6c0,5,3.3,9.2,7.8,10.7l-0.2-4.9h4.1l0.7,3.8h5.1v-4.9
					c-0.3-0.1-0.5-0.1-0.8-0.2C12.3,33,9.4,30.9,8,27.7c-1.4-3.2-1.6-7.2-0.4-11.8c0.8-3,2-5.5,3.7-7.5c1.7-2,3.7-3.3,6-4.1
					c2.3-0.7,4.9-0.7,7.6,0c4.5,1.2,7.5,3.3,9,6.3c1.5,3.1,1.7,6.9,0.5,11.6c-0.8,3.1-2,5.6-3.8,7.7c-1.7,2.1-3.8,3.5-6.2,4.3
					c-0.4,0.1-0.8,0.2-1.3,0.3v4.9h5.3l0.7-3.8h4.2l-0.3,4.9c4.5-1.4,7.8-5.7,7.8-10.6V11.2C40.9,5,35.9,0,29.8,0z"/>
			</g>
		</g>
		<g>
			<path fill="#FFFFFF" d="M24.5,34c2.4-0.8,4.5-2.2,6.2-4.3c1.7-2.1,3-4.6,3.8-7.7c1.2-4.7,1-8.5-0.5-11.6c-1.5-3.1-4.5-5.2-9-6.3
				c-2.7-0.7-5.2-0.7-7.6,0C15,5,13,6.3,11.3,8.3c-1.7,2-2.9,4.5-3.7,7.5C6.4,20.5,6.5,24.5,8,27.7c1.4,3.2,4.4,5.4,8.8,6.5
				c0.3,0.1,0.5,0.1,0.8,0.2v4.9h-5.1l-0.7-3.8H7.6l0.2,4.9c1.1,0.3,2.2,0.5,3.3,0.5h18.6c1.2,0,2.3-0.2,3.3-0.5l0.3-4.9h-4.2
				l-0.7,3.8h-5.3v-4.9C23.6,34.3,24,34.2,24.5,34z M17.8,31.6c-2.8-0.7-4.7-2.3-5.7-4.7c-0.2-0.5-0.4-1.1-0.5-1.8l6,1.5
				c0.1,0,0.2,0,0.4,0c0.6,0,1.2-0.4,1.4-1.1c0.2-0.8-0.3-1.5-1-1.7l-6.9-1.8c0-1,0.2-2.2,0.4-3.4l7.3,1.9c0.1,0,0.2,0,0.4,0
				c0.6,0,1.2-0.4,1.4-1.1c0.2-0.8-0.3-1.5-1-1.7L12.4,16c0.3-1.2,0.7-2.2,1.1-3.2l7.1,1.8c0.1,0,0.2,0,0.4,0c0.6,0,1.2-0.4,1.4-1.1
				c0.2-0.8-0.3-1.5-1-1.7L15,10.3c0.6-0.8,1.2-1.5,1.8-2c2.1-1.7,4.5-2.2,7.3-1.4c2.8,0.7,4.8,2.2,5.8,4.5c1,2.3,1,5.5-0.1,9.7
				c-1.1,4.1-2.6,7.1-4.7,9C23,31.7,20.5,32.3,17.8,31.6z"/>
		</g>
	</g>
</g>
</svg>
